iter	Passed	Remaining
0	1	1138
1	2	1012
2	2	958
3	3	929
4	4	913
5	5	905
6	6	897
7	7	891
8	8	886
9	8	881
10	9	878
11	10	875
12	11	875
13	12	872
14	13	869
15	14	866
16	14	865
17	15	862
18	16	861
19	17	859
20	18	857
21	19	856
22	20	855
23	21	856
24	21	855
25	22	853
26	23	852
27	24	847
28	25	846
29	26	845
30	27	844
31	27	843
32	28	843
33	29	842
34	30	841
35	31	840
36	32	839
37	33	838
38	33	837
39	34	836
40	35	835
41	36	834
42	37	833
43	38	832
44	39	831
45	40	830
46	40	829
47	41	828
48	42	827
49	43	827
50	44	826
51	45	824
52	46	824
53	46	823
54	47	822
55	48	821
56	49	821
57	50	820
58	51	820
59	52	819
60	53	818
61	54	817
62	54	817
63	55	816
64	56	815
65	57	814
66	58	814
67	59	813
68	60	812
69	61	811
70	61	810
71	62	809
72	63	808
73	64	808
74	65	807
75	66	806
76	67	805
77	68	804
78	68	803
79	69	802
80	70	801
81	71	800
82	72	799
83	73	798
84	74	797
85	74	796
86	75	796
87	76	794
88	77	794
89	78	793
90	79	792
91	80	792
92	81	791
93	81	790
94	82	789
95	83	788
96	84	787
97	85	786
98	86	785
99	87	784
100	88	783
101	88	782
102	89	782
103	90	781
104	91	780
105	92	779
106	93	778
107	94	777
108	94	776
109	95	775
110	96	775
111	97	774
112	98	773
113	99	772
114	100	771
115	101	770
116	101	769
117	102	768
118	103	767
119	104	766
120	105	766
121	106	765
122	107	764
123	107	762
124	108	761
125	109	760
126	110	759
127	111	758
128	112	758
129	113	757
130	114	756
131	114	755
132	115	754
133	116	753
134	117	752
135	118	752
136	119	751
137	120	750
138	120	749
139	121	748
140	122	747
141	123	746
142	124	746
143	125	746
144	126	745
145	127	745
146	128	744
147	129	744
148	130	743
149	131	743
150	132	742
151	133	742
152	133	741
153	134	740
154	135	739
155	136	738
156	137	738
157	138	737
158	139	736
159	140	735
160	140	734
161	141	733
162	142	732
163	143	731
164	144	731
165	145	730
166	146	729
167	147	728
168	147	727
169	148	726
170	149	725
171	150	724
172	151	723
173	152	722
174	153	722
175	154	721
176	155	720
177	155	720
178	156	719
179	157	718
180	158	718
181	159	717
182	160	716
183	161	716
184	162	715
185	163	715
186	164	714
187	165	713
188	166	713
189	167	712
190	168	711
191	169	711
192	169	710
193	170	709
194	171	709
195	172	708
196	173	707
197	174	706
198	175	705
199	176	704
200	177	703
201	177	702
202	178	702
203	179	701
204	180	700
205	181	699
206	182	698
207	183	697
208	184	696
209	185	696
210	185	695
211	186	694
212	187	693
213	188	693
214	189	692
215	190	692
216	191	691
217	192	690
218	193	690
219	194	689
220	195	688
221	196	687
222	197	687
223	198	686
224	198	685
225	199	684
226	200	683
227	201	682
228	202	682
229	203	681
230	204	680
231	205	680
232	206	679
233	207	678
234	208	677
235	209	677
236	210	676
237	211	675
238	211	674
239	212	673
240	213	672
241	214	672
242	215	671
243	216	670
244	217	669
245	218	669
246	219	668
247	220	667
248	220	666
249	221	665
250	222	664
251	223	664
252	224	663
253	225	662
254	226	661
255	227	661
256	228	660
257	229	659
258	230	658
259	231	658
260	232	657
261	233	656
262	233	655
263	234	654
264	235	653
265	236	652
266	237	652
267	238	651
268	239	650
269	240	650
270	241	649
271	242	648
272	243	647
273	243	646
274	244	645
275	245	644
276	246	643
277	247	643
278	248	642
279	249	641
280	250	640
281	251	640
282	252	639
283	253	638
284	254	637
285	254	636
286	255	635
287	256	634
288	257	633
289	258	632
290	259	632
291	260	631
292	261	630
293	262	629
294	262	628
295	263	627
296	264	626
297	265	625
298	266	624
299	267	623
300	268	623
301	269	622
302	270	621
303	271	620
304	271	619
305	272	618
306	273	617
307	274	617
308	275	616
309	276	615
310	277	614
311	278	613
312	279	612
313	280	611
314	280	610
315	281	609
316	282	609
317	283	608
318	284	607
319	285	606
320	286	605
321	287	604
322	288	604
323	289	603
324	290	602
325	290	601
326	291	600
327	292	599
328	293	598
329	294	597
330	295	597
331	296	596
332	297	595
333	298	594
334	298	593
335	299	592
336	300	591
337	301	590
338	302	589
339	303	589
340	304	588
341	305	587
342	306	586
343	307	585
344	308	584
345	308	584
346	309	583
347	310	582
348	311	581
349	312	580
350	313	579
351	314	579
352	315	578
353	316	577
354	317	576
355	318	575
356	319	575
357	320	574
358	321	573
359	321	572
360	322	571
361	323	570
362	324	569
363	325	568
364	326	567
365	327	567
366	328	566
367	329	565
368	330	564
369	331	563
370	331	562
371	332	561
372	333	560
373	334	560
374	335	559
375	336	558
376	337	557
377	338	556
378	339	555
379	339	554
380	340	553
381	341	552
382	342	551
383	343	550
384	344	550
385	345	549
386	346	548
387	347	547
388	347	546
389	348	545
390	349	544
391	350	543
392	351	542
393	352	541
394	353	540
395	353	539
396	354	538
397	355	538
398	356	537
399	357	536
400	358	535
401	359	534
402	359	533
403	360	532
404	361	531
405	362	530
406	363	529
407	364	528
408	365	527
409	366	526
410	367	526
411	367	525
412	368	524
413	369	523
414	370	522
415	371	521
416	372	521
417	373	520
418	374	519
419	375	518
420	376	517
421	377	516
422	378	515
423	378	514
424	379	513
425	380	513
426	381	512
427	382	511
428	383	510
429	384	509
430	385	508
431	386	507
432	386	506
433	387	505
434	388	504
435	389	503
436	390	503
437	391	502
438	392	501
439	393	500
440	394	499
441	395	498
442	396	497
443	396	497
444	397	496
445	398	495
446	399	494
447	400	493
448	401	492
449	402	491
450	403	490
451	404	489
452	405	489
453	405	488
454	406	487
455	407	486
456	408	485
457	409	484
458	410	484
459	411	483
460	412	482
461	413	481
462	414	480
463	415	479
464	416	478
465	417	478
466	418	477
467	419	476
468	420	475
469	420	474
470	421	473
471	422	473
472	423	472
473	424	471
474	425	470
475	426	469
476	427	468
477	428	468
478	429	467
479	430	466
480	431	465
481	432	464
482	433	463
483	434	463
484	435	462
485	436	461
486	437	460
487	438	459
488	439	458
489	440	458
490	441	457
491	442	456
492	443	455
493	444	454
494	445	454
495	446	453
496	447	452
497	448	451
498	449	451
499	450	450
500	451	449
501	451	448
502	452	447
503	453	446
504	454	445
505	455	445
506	456	444
507	457	443
508	458	442
509	459	441
510	460	440
511	461	439
512	462	439
513	463	438
514	464	437
515	465	436
516	466	435
517	467	434
518	468	433
519	469	433
520	470	432
521	471	431
522	472	430
523	473	429
524	474	429
525	475	428
526	476	427
527	476	426
528	477	425
529	478	424
530	479	423
531	480	422
532	481	422
533	482	421
534	483	420
535	484	419
536	485	418
537	486	417
538	487	416
539	488	416
540	489	415
541	490	414
542	491	413
543	492	412
544	492	411
545	493	410
546	494	409
547	495	408
548	496	407
549	497	407
550	498	406
551	499	405
552	500	404
553	501	403
554	502	402
555	503	401
556	504	401
557	505	400
558	506	399
559	507	398
560	507	397
561	508	396
562	509	395
563	510	394
564	511	393
565	512	393
566	513	392
567	514	391
568	515	390
569	516	389
570	516	388
571	517	387
572	518	386
573	519	385
574	520	385
575	521	384
576	522	383
577	523	382
578	524	381
579	525	380
580	526	379
581	527	378
582	528	377
583	529	376
584	529	375
585	530	375
586	531	374
587	532	373
588	533	372
589	534	371
590	535	370
591	536	369
592	537	368
593	538	368
594	539	367
595	540	366
596	541	365
597	542	364
598	543	363
599	543	362
600	544	361
601	545	360
602	546	359
603	547	358
604	548	358
605	549	357
606	550	356
607	551	355
608	552	354
609	553	353
610	553	352
611	554	351
612	555	350
613	556	349
614	557	349
615	558	348
616	559	347
617	560	346
618	561	345
619	562	344
620	563	343
621	564	342
622	564	341
623	565	341
624	566	340
625	567	339
626	568	338
627	569	337
628	570	336
629	571	335
630	572	334
631	573	333
632	574	332
633	575	331
634	575	331
635	576	330
636	577	329
637	578	328
638	579	327
639	580	326
640	581	325
641	582	324
642	582	323
643	583	322
644	584	321
645	585	320
646	586	319
647	587	319
648	588	318
649	589	317
650	589	316
651	590	315
652	591	314
653	592	313
654	593	312
655	594	311
656	595	310
657	596	309
658	596	308
659	597	307
660	598	307
661	599	306
662	600	305
663	601	304
664	602	303
665	603	302
666	604	301
667	604	300
668	605	299
669	606	298
670	607	297
671	608	297
672	609	296
673	610	295
674	611	294
675	612	293
676	612	292
677	613	291
678	614	290
679	615	289
680	616	288
681	617	287
682	618	286
683	619	286
684	620	285
685	621	284
686	621	283
687	622	282
688	623	281
689	624	280
690	625	279
691	626	278
692	627	277
693	628	276
694	629	276
695	629	275
696	630	274
697	631	273
698	632	272
699	633	271
700	634	270
701	635	269
702	636	268
703	637	267
704	638	266
705	639	266
706	639	265
707	640	264
708	641	263
709	642	262
710	643	261
711	644	260
712	645	259
713	646	258
714	646	257
715	647	256
716	648	256
717	649	255
718	650	254
719	651	253
720	652	252
721	653	251
722	654	250
723	654	249
724	655	248
725	656	247
726	657	246
727	658	246
728	659	245
729	660	244
730	661	243
731	662	242
732	663	241
733	663	240
734	664	239
735	665	238
736	666	237
737	667	236
738	668	236
739	669	235
740	670	234
741	670	233
742	671	232
743	672	231
744	673	230
745	674	229
746	675	228
747	676	227
748	677	226
749	678	226
750	678	225
751	679	224
752	680	223
753	681	222
754	682	221
755	683	220
756	684	219
757	685	218
758	685	217
759	686	216
760	687	215
761	688	215
762	689	214
763	690	213
764	691	212
765	692	211
766	693	210
767	693	209
768	694	208
769	695	207
770	696	206
771	697	206
772	698	205
773	699	204
774	700	203
775	701	202
776	701	201
777	702	200
778	703	199
779	704	198
780	705	197
781	706	196
782	707	196
783	708	195
784	709	194
785	709	193
786	710	192
787	711	191
788	712	190
789	713	189
790	714	188
791	715	187
792	716	186
793	717	186
794	717	185
795	718	184
796	719	183
797	720	182
798	721	181
799	722	180
800	723	179
801	724	178
802	724	177
803	725	176
804	726	176
805	727	175
806	728	174
807	729	173
808	730	172
809	731	171
810	732	170
811	733	169
812	734	168
813	734	167
814	735	167
815	736	166
816	737	165
817	738	164
818	739	163
819	740	162
820	741	161
821	742	160
822	742	159
823	743	158
824	745	158
825	745	157
826	746	156
827	747	155
828	748	154
829	749	153
830	750	152
831	751	151
832	752	150
833	753	149
834	753	148
835	754	148
836	755	147
837	756	146
838	757	145
839	758	144
840	759	143
841	760	142
842	761	141
843	762	140
844	763	139
845	763	139
846	764	138
847	765	137
848	766	136
849	767	135
850	768	134
851	769	133
852	770	132
853	771	131
854	772	130
855	772	130
856	773	129
857	774	128
858	775	127
859	776	126
860	777	125
861	778	124
862	779	123
863	780	122
864	781	121
865	781	120
866	782	120
867	783	119
868	784	118
869	785	117
870	786	116
871	787	115
872	788	114
873	789	113
874	789	112
875	790	111
876	791	111
877	792	110
878	793	109
879	794	108
880	795	107
881	796	106
882	797	105
883	797	104
884	798	103
885	799	102
886	800	102
887	801	101
888	802	100
889	803	99
890	804	98
891	805	97
892	805	96
893	806	95
894	807	94
895	808	93
896	809	92
897	810	92
898	811	91
899	812	90
900	813	89
901	813	88
902	814	87
903	815	86
904	816	85
905	817	84
906	818	83
907	819	83
908	820	82
909	820	81
910	821	80
911	822	79
912	823	78
913	824	77
914	825	76
915	826	75
916	826	74
917	827	73
918	828	73
919	829	72
920	830	71
921	831	70
922	832	69
923	832	68
924	833	67
925	834	66
926	835	65
927	836	64
928	837	63
929	838	63
930	839	62
931	839	61
932	840	60
933	841	59
934	842	58
935	843	57
936	844	56
937	845	55
938	845	54
939	846	54
940	848	53
941	848	52
942	849	51
943	850	50
944	851	49
945	852	48
946	853	47
947	854	46
948	855	45
949	855	45
950	856	44
951	857	43
952	858	42
953	859	41
954	860	40
955	861	39
956	862	38
957	862	37
958	863	36
959	864	36
960	865	35
961	866	34
962	867	33
963	868	32
964	868	31
965	869	30
966	870	29
967	871	28
968	872	27
969	873	27
970	874	26
971	875	25
972	875	24
973	876	23
974	877	22
975	878	21
976	879	20
977	880	19
978	881	18
979	882	18
980	883	17
981	883	16
982	884	15
983	885	14
984	886	13
985	887	12
986	888	11
987	889	10
988	890	9
989	891	9
990	892	8
991	892	7
992	893	6
993	894	5
994	895	4
995	896	3
996	897	2
997	898	1
998	899	0
999	899	0
